{
  "org" : "RiPPro",
  "create-date-created" : "2013-05-01",
  "title" : "RiPPro『ACM-ICPC アジア地区予選大会』(2011/11)",
  "body" : ["弊部門OBが参加したチームが出場し，10位でした.<br>",
            "来年は現役チームも国内予選通過できるように, 今年度も引き続き頑張って活動します!!<br>"]
}