{
  "org" : "RiPPro",
  "create-date-created" : "2014-10",
  "title" : "RiPPro『ACM-ICPC アジア地区予選東京大会』(2014/10)",
  "body" : ["弊部門OBが参加したチームが出場し，32位でした.",
            "来年は現役チームも国内予選通過できるように, 今年度も引き続き頑張って活動します!!"]
}