{
  "org" : "RiG++",
  "create-date-created" : "2015-06",
  "title" : "RiG++『BITSUMMIT 2015 京都インディーズゲームフェスティバル』(2015/06)",
  "body" : ["BITSUMMIT 2015 京都インディーズゲームフェスティバル』への出展が決定しました!!",
            "詳しくは<A Href='http://bitsummit.org/2015-coming-soon/'>こちら</A>"]
}