{
  "org" : "Ri-one",
  "create-date-created" : "2015-07",
  "title" : "Ri-one『RoboCup2015 世界大会』(2015/07)",
  "body" : ["今年は中国での世界大会でした. 来年は優勝できるように, 今年度も引き続き頑張って活動します!!",
            "Rescue Simulation League ： 9位",
            "2D Soccer Simulation League ： 9位"]
}