{
  "org" : "Ri-one",
  "create-date-created" : "2015-05",
  "title" : "Ri-one『RoboCupJapanOpen2015』(2015/05)",
  "body" : ["今年は福井県での日本大会でした。 参加した両リーグで優勝を収めることが出来ました。",
            "来年以降も優勝を取れるように引き続き活動を行って行きます。",
            "Rescue Simulation League ： 優勝",
            "2D Soccer Simulation League ： 優勝"]
}