{
  "org" : "RiPPro",
  "create-date-created" : "2016-03",
  "title" : "RiPPro『RUPC(Ritsumeikan University Programing Contest)2016を開催しました。』(2016/03)",
  "body" : ["2016年3月6日(日)～8(水)に開催しました。",
            "RUPCの詳細は<a href='http://rippro.org/event/ritscamp2016/index.html …'>こちら</a>"]
}