{
  "org" : "RiPPro",
  "create-date-created" : "2017-03",
  "title" : "RiPPro『RUPC(Ritsumeikan University Programing Contest)2017を開催しました。』(2017/03)",
  "body" : ["2017年3月22日(水)～24(金)に開催しました。",
            "RUPCの詳細は<a href='http://rippro.org/event/ritscamp2017/index.html'>こちら</a>"]
}
